QCB 508 – Week 2
…
babynames Object

> class(babynames)
[1] "tbl_df"     "tbl"        "data.frame"
> dim(babynames)
[1] 1825433       5

> babynames
# A tibble: 1,825,433 × 5
    year   sex      name     n       prop
   <dbl> <chr>     <chr> <int>      <dbl>
1   1880     F      Mary  7065 0.07238359
2   1880     F      Anna  2604 0.02667896
3   1880     F      Emma  2003 0.02052149
4   1880     F Elizabeth  1939 0.01986579
5   1880     F    Minnie  1746 0.01788843
6   1880     F  Margaret  1578 0.01616720
7   1880     F       Ida  1472 0.01508119
8   1880     F     Alice  1414 0.01448696
9   1880     F    Bertha  1320 0.01352390
10  1880     F     Sarah  1288 0.01319605
# ... with 1,825,423 more rows
…
> babynames %>% sample_n(5)
# A tibble: 5 × 5
   year   sex    name     n         prop
  <dbl> <chr>   <chr> <int>        <dbl>
1  1979     M   Sunil    42 2.344364e-05
2  1996     F  Kelina     5 2.608857e-06
3  1991     F  Gimena     7 3.443326e-06
4  1979     M Neilson     9 5.023636e-06
5  1984     F Romelia     5 2.774045e-06

filter()

> filter(babynames, year==1880, sex=="F")
# A tibble: 942 × 5
    year   sex      name     n       prop
   <dbl> <chr>     <chr> <int>      <dbl>
1   1880     F      Mary  7065 0.07238359
2   1880     F      Anna  2604 0.02667896
3   1880     F      Emma  2003 0.02052149
4   1880     F Elizabeth  1939 0.01986579
5   1880     F    Minnie  1746 0.01788843
6   1880     F  Margaret  1578 0.01616720
7   1880     F       Ida  1472 0.01508119
8   1880     F     Alice  1414 0.01448696
9   1880     F    Bertha  1320 0.01352390
10  1880     F     Sarah  1288 0.01319605
# ... with 932 more rows
> # same as filter(babynames, year==1880 & sex=="F")

> filter(babynames, year==1880, sex=="F", n > 5000)
# A tibble: 1 × 5
   year   sex  name     n       prop
  <dbl> <chr> <chr> <int>      <dbl>
1  1880     F  Mary  7065 0.07238359

arrange()

> arrange(babynames, name, year, sex)
# A tibble: 1,825,433 × 5
    year   sex  name     n         prop
   <dbl> <chr> <chr> <int>        <dbl>
1   2007     M Aaban     5 2.260251e-06
2   2009     M Aaban     6 2.834029e-06
3   2010     M Aaban     9 4.390297e-06
4   2011     M Aaban    11 5.429927e-06
5   2012     M Aaban    11 5.440091e-06
6   2013     M Aaban    14 6.961721e-06
7   2014     M Aaban    16 7.882569e-06
8   2011     F Aabha     7 3.622491e-06
9   2012     F Aabha     5 2.587144e-06
10  2014     F Aabha     9 4.642684e-06
# ... with 1,825,423 more rows

arrange()

> arrange(babynames, desc(name), desc(year), sex)
# A tibble: 1,825,433 × 5
    year   sex      name     n         prop
   <dbl> <chr>     <chr> <int>        <dbl>
1   2010     M     Zzyzx     5 2.439054e-06
2   2014     M     Zyyon     6 2.955964e-06
3   2010     F   Zyyanna     6 3.067323e-06
4   2009     M    Zyvion     5 2.361691e-06
5   2010     M Zytavious     6 2.926865e-06
6   2009     M Zytavious     7 3.306368e-06
7   2007     M Zytavious     6 2.712301e-06
8   2006     M Zytavious     7 3.196664e-06
9   2005     M Zytavious     5 2.352830e-06
10  2004     M Zytavious     6 2.841628e-06
# ... with 1,825,423 more rows

rename()

> rename(babynames, number=n)
# A tibble: 1,825,433 × 5
    year   sex      name number       prop
   <dbl> <chr>     <chr>  <int>      <dbl>
1   1880     F      Mary   7065 0.07238359
2   1880     F      Anna   2604 0.02667896
3   1880     F      Emma   2003 0.02052149
4   1880     F Elizabeth   1939 0.01986579
5   1880     F    Minnie   1746 0.01788843
6   1880     F  Margaret   1578 0.01616720
7   1880     F       Ida   1472 0.01508119
8   1880     F     Alice   1414 0.01448696
9   1880     F    Bertha   1320 0.01352390
10  1880     F     Sarah   1288 0.01319605
# ... with 1,825,423 more rows

select()

> select(babynames, sex, name, n)
# A tibble: 1,825,433 × 3
     sex      name     n
   <chr>     <chr> <int>
1      F      Mary  7065
2      F      Anna  2604
3      F      Emma  2003
4      F Elizabeth  1939
5      F    Minnie  1746
6      F  Margaret  1578
7      F       Ida  1472
8      F     Alice  1414
9      F    Bertha  1320
10     F     Sarah  1288
# ... with 1,825,423 more rows
> # same as select(babynames, sex:n)

Renaming with select()

> select(babynames, sex, name, number=n)
# A tibble: 1,825,433 × 3
     sex      name number
   <chr>     <chr>  <int>
1      F      Mary   7065
2      F      Anna   2604
3      F      Emma   2003
4      F Elizabeth   1939
5      F    Minnie   1746
6      F  Margaret   1578
7      F       Ida   1472
8      F     Alice   1414
9      F    Bertha   1320
10     F     Sarah   1288
# ... with 1,825,423 more rows

mutate()

> mutate(babynames, total_by_year=round(n/prop))
# A tibble: 1,825,433 × 6
    year   sex      name     n       prop total_by_year
   <dbl> <chr>     <chr> <int>      <dbl>         <dbl>
1   1880     F      Mary  7065 0.07238359         97605
2   1880     F      Anna  2604 0.02667896         97605
3   1880     F      Emma  2003 0.02052149         97605
4   1880     F Elizabeth  1939 0.01986579         97605
5   1880     F    Minnie  1746 0.01788843         97605
6   1880     F  Margaret  1578 0.01616720         97605
7   1880     F       Ida  1472 0.01508119         97605
8   1880     F     Alice  1414 0.01448696         97605
9   1880     F    Bertha  1320 0.01352390         97605
10  1880     F     Sarah  1288 0.01319605         97605
# ... with 1,825,423 more rows
> # see also transmutate

No. Individuals by Year and Sex

Let’s put a few things together now adding the function distinct()…

> babynames %>% mutate(total_by_year=round(n/prop)) %>% 
+   select(sex, year, total_by_year) %>% distinct()
# A tibble: 270 × 3
     sex  year total_by_year
   <chr> <dbl>         <dbl>
1      F  1880         97605
2      M  1880        118400
3      F  1881         98856
4      M  1881        108284
5      F  1882        115698
6      M  1882        122033
7      F  1883        120064
8      M  1883        112480
9      F  1884        137588
10     M  1884        122741
# ... with 260 more rows

summarize()

> summarize(babynames, mean_n = mean(n), median_n = median(n), 
+           number_sex = n_distinct(sex), 
+           distinct_names = n_distinct(name))
# A tibble: 1 × 4
    mean_n median_n number_sex distinct_names
     <dbl>    <int>      <int>          <int>
1 184.6879       12          2          93889

group_by()

> babynames %>% group_by(year, sex)
Source: local data frame [1,825,433 x 5]
Groups: year, sex [270]

    year   sex      name     n       prop
   <dbl> <chr>     <chr> <int>      <dbl>
1   1880     F      Mary  7065 0.07238359
2   1880     F      Anna  2604 0.02667896
3   1880     F      Emma  2003 0.02052149
4   1880     F Elizabeth  1939 0.01986579
5   1880     F    Minnie  1746 0.01788843
6   1880     F  Margaret  1578 0.01616720
7   1880     F       Ida  1472 0.01508119
8   1880     F     Alice  1414 0.01448696
9   1880     F    Bertha  1320 0.01352390
10  1880     F     Sarah  1288 0.01319605
# ... with 1,825,423 more rows

No. Individuals by Year and Sex

> babynames %>% group_by(year, sex) %>% 
+   summarize(total_by_year=sum(n))
Source: local data frame [270 x 3]
Groups: year [?]

    year   sex total_by_year
   <dbl> <chr>         <int>
1   1880     F         90993
2   1880     M        110491
3   1881     F         91954
4   1881     M        100745
5   1882     F        107850
6   1882     M        113688
7   1883     F        112321
8   1883     M        104629
9   1884     F        129022
10  1884     M        114445
# ... with 260 more rows
…
$marker
[1] 2820  109

$exp.pos
[1] 4482    3

$marker.pos
[1] 2820    2

Gene Expression Matrices

> exp.g %>% cbind(rownames(exp.g), .) %>% as_tibble() %>% 
+   print()
# A tibble: 4,482 × 110
        `` X100g.20_4_c.glucose X101g.21_1_d.glucose
     <chr>                <chr>                <chr>
1  YJR107W                 0.22                 0.18
2  YPL270W                -0.29                 -0.2
3  YDR518W                 0.72                 0.04
4  YDR233C                 0.23                 0.31
5  YHR098C                  0.4                -0.04
6  YFR029W                -0.36                 0.35
7  YPL198W                 0.23                -0.21
8  YDR001C                -0.09                 0.57
9  YLR394W                -0.23                 0.13
10 YCR079W                -0.25                -0.98
# ... with 4,472 more rows, and 107 more variables:
#   X102g.21_2_d.glucose <chr>, X103g.21_3_d.glucose <chr>,
#   X104g.21_4_d.glucose <chr>, X105g.21_5_c.glucose <chr>,
#   X106g.22_2_d.glucose <chr>, X107g.22_3_b.glucose <chr>,
#   X109g.22_5_d.glucose <chr>, X10g.2_5_d.glucose <chr>,
#   X110g.23_3_d.glucose <chr>, X111g.23_5_d.glucose <chr>,
#   X112g.24_1_d.glucose <chr>, X113g.25_1_d.glucose <chr>,
#   X114g.25_3_d.glucose <chr>, X115g.25_4_d.glucose <chr>,
#   X116g.26_1_d.glucose <chr>, X117g.26_2_d.glucose <chr>,
…
Gene Position Matrix

> exp.pos %>% cbind(rownames(exp.pos), .) %>% as_tibble() %>% 
+   print()
# A tibble: 4,482 × 4
        `` Chromsome Start_coord End_coord
     <chr>     <chr>       <chr>     <chr>
1  YJR107W        10      627333    628319
2  YPL270W        16       30482     32803
3  YDR518W         4     1478600   1480153
4  YDR233C         4      930353    929466
5  YHR098C         8      301937    299148
6  YFR029W         6      210925    212961
7  YPL198W        16      173151    174701
8  YDR001C         4      452472    450217
9  YLR394W        12      907950    909398
10 YCR079W         3      252842    254170
# ... with 4,472 more rows
…
Gene Positions

Let’s first pull out rownames of exp.pos and make them a column in the data frame.

> gene_pos <- exp.pos %>% as_tibble() %>%
+   mutate(gene = rownames(exp.pos)) %>%
+   dplyr::select(gene, chr = Chromsome, start = Start_coord, 
+                 end = End_coord)
> print(gene_pos, n=7)
# A tibble: 4,482 × 4
     gene   chr   start     end
    <chr> <int>   <int>   <int>
1 YJR107W    10  627333  628319
2 YPL270W    16   30482   32803
3 YDR518W     4 1478600 1480153
4 YDR233C     4  930353  929466
5 YHR098C     8  301937  299148
6 YFR029W     6  210925  212961
7 YPL198W    16  173151  174701
# ... with 4,475 more rows
…
Get the mean and standard deviation expression per chromosome in each condition.

> sk_tidy %>%
+   group_by(chr, condition) %>%
+   summarize(mean = mean(expression), sd=sd(expression))
Source: local data frame [32 x 4]
Groups: chr [?]

     chr condition          mean        sd
   <int>     <chr>         <dbl>     <dbl>
1      1   ethanol  0.0260098709 0.4796494
2      1   glucose -0.1783790350 1.0549134
3      2   ethanol  0.0131661446 0.4793614
4      2   glucose -0.1025951501 0.7503419
5      3   ethanol  0.0001644526 0.5360078
6      3   glucose -0.0460935780 0.8004235
7      4   ethanol  0.0018726571 0.4817756
8      4   glucose -0.0483905104 0.5857082
9      5   ethanol -0.0297045435 0.4787130
10     5   glucose -0.0861659403 0.7163443
# ... with 22 more rows
…
To plot expression in glucose versus ethanol we first need to use dcast().

> sk_tidy %>% dcast(gene + segregant ~ condition, 
+                   value.var = "expression") %>%
+   as_tibble()
# A tibble: 488,102 × 4
      gene segregant ethanol glucose
     <chr>     <chr>   <dbl>   <dbl>
1  YAL002W     1_1_d    0.37   -0.01
2  YAL002W     1_3_d    0.23    0.03
3  YAL002W     1_4_d    0.08    0.07
4  YAL002W     1_5_c   -0.12    0.13
5  YAL002W    10_1_c    0.12   -0.10
6  YAL002W    10_2_d    0.10   -0.20
7  YAL002W    10_3_c    0.07   -0.15
8  YAL002W    10_4_d    0.06   -0.04
9  YAL002W    11_1_a    0.07   -0.07
10 YAL002W    11_2_d    0.30    0.10
# ... with 488,092 more rows
…
