QCB 508 – Week 9
…
Tree Pollen Study

Suppose that we have a study where tree pollen measurements are averaged every week, and these data are recorded for 10 years. These data are simulated:

> pollen_study
# A tibble: 520 × 3
    week  year   pollen
   <int> <int>    <dbl>
1      1  2001 1841.751
2      2  2001 1965.503
3      3  2001 2380.972
4      4  2001 2141.025
5      5  2001 2210.473
6      6  2001 2585.321
7      7  2001 2392.183
8      8  2001 2104.680
9      9  2001 2278.014
10    10  2001 2383.945
# ... with 510 more rows
…
