QCB 508 – Week 5
…
About These Functions (cont’d)

The above R functions are versatile functions for analyzing Normal, Binomial, and Poisson distributed data (or approximations thereof) that use much broader theory and methods than we have covered

However, the arguments these functions take and the ouput of the functions are in line with the framework that we have covered

Normal Data: “Davis” Data Set

> library("car")
> data("Davis")

> htwt <- tbl_df(Davis)
> htwt
# A tibble: 200 × 5
      sex weight height repwt repht
*  <fctr>  <int>  <int> <int> <int>
1       M     77    182    77   180
2       F     58    161    51   159
3       F     53    161    54   158
4       M     68    177    70   175
5       F     59    157    59   155
6       M     76    170    76   165
7       M     76    167    77   165
8       M     69    186    73   180
9       M     71    178    71   175
10      M     65    171    64   170
# ... with 190 more rows
…
